<?xml version="1.0" encoding="UTF-8"?>
<svg width="24px" height="18px" viewBox="0 0 24 18" version="1.1" xmlns="http://www.w3.org/2000/svg" xmlns:xlink="http://www.w3.org/1999/xlink">
    <title>courier</title>
    <g id="Page-1" stroke="none" stroke-width="1" fill="none" fill-rule="evenodd">
        <g id="Landing" transform="translate(-78.000000, -362.000000)" fill-rule="nonzero">
            <g id="Group-3" transform="translate(36.000000, 353.000000)">
                <g id="Group-6" transform="translate(42.000000, 8.000000)">
                    <g id="courier" transform="translate(0.000000, 1.000000)">
                        <path d="M15.6335878,0.781679389 L15.6335878,13.2885496 L0.390839695,12.5068702 L3.36942901,0.592122137 C3.45643791,0.244032113 3.76924919,-4.80272732e-08 4.12804885,-4.80272732e-08 L14.8519084,-4.80272732e-08 C15.283618,-4.80272732e-08 15.6335878,0.349969783 15.6335878,0.781679389 Z" id="Shape" fill="#35495E"></path>
                        <path d="M23.059542,12.5068702 L23.059542,6.90496489 C23.059542,6.73583276 23.0046854,6.57126294 22.9032061,6.43595725 L19.7764885,2.26687023 C19.628865,2.07003879 19.3971843,1.95419847 19.151145,1.95419847 L15.6335878,1.95419847 L15.6335878,13.2885496 L23.059542,12.5068702 Z" id="Shape" fill="#E64C3C"></path>
                        <path d="M5.47175573,14.4610687 L22.2778626,14.4610687 C22.7090377,14.459781 23.0582542,14.1105644 23.059542,13.6793893 L23.059542,12.5068702 L0.390839695,12.5068702 L0.390839695,13.6793893 C0.392127433,14.1105644 0.741344002,14.459781 1.17251908,14.4610687 L5.47175573,14.4610687 Z" id="Shape" fill="#547580"></path>
                        <circle id="Oval" fill="#35495E" cx="3.90839695" cy="15.6335878" r="1.95419847"></circle>
                        <circle id="Oval" fill="#3F5C6C" cx="3.90839695" cy="15.6335878" r="1"></circle>
                        <circle id="Oval" fill="#35495E" cx="19.5419847" cy="15.6335878" r="1.95419847"></circle>
                        <path d="M21.4961889,7.2969771 L21.4961889,7.4259542 C21.4961889,7.64180898 21.3211983,7.81679389 21.1053435,7.81679389 L17.5877863,7.81679389 C17.3719315,7.81679389 17.1969466,7.64180898 17.1969466,7.4259542 L17.1969466,3.90839695 C17.1969466,3.69254214 17.3719315,3.51755725 17.5877863,3.51755725 L18.5648855,3.51755725 C18.6877038,3.51840367 18.8031891,3.57614635 18.8775573,3.67389313 L19.495084,4.49856489 L21.4180153,7.06247328 C21.4691666,7.12990974 21.4966424,7.21233717 21.4961889,7.2969771 Z" id="Shape" fill="#67B9CC"></path>
                        <path d="M17.978626,9.77099237 L17.1969466,9.77099237 C16.9810918,9.77099237 16.8061069,9.59600746 16.8061069,9.38015267 C16.8061069,9.16429789 16.9810918,8.98931298 17.1969466,8.98931298 L17.978626,8.98931298 C18.1944807,8.98931298 18.3694656,9.16429789 18.3694656,9.38015267 C18.3694656,9.59600746 18.1944807,9.77099237 17.978626,9.77099237 Z" id="Shape" fill="#C03A2B"></path>
                        <path d="M21.8870229,9.38015267 L23.059542,9.38015267 L23.059542,10.9435115 L21.8870229,10.9435115 C21.6711681,10.9435115 21.4961832,10.7685265 21.4961832,10.5526718 L21.4961832,9.77099237 C21.4961832,9.55513758 21.6711681,9.38015267 21.8870229,9.38015267 Z" id="Shape" fill="#F0C419"></path>
                        <path d="M0.781679389,17.1969466 L0.390839695,17.1969466 C0.174984892,17.1969466 0,17.3719315 0,17.5877863 C0,17.803641 0.174984892,17.978626 0.390839695,17.978626 L0.781679389,17.978626 C0.997534192,17.978626 1.17251908,17.803641 1.17251908,17.5877863 C1.17251908,17.3719315 0.997534192,17.1969466 0.781679389,17.1969466 Z" id="Shape" fill="#2C3E50"></path>
                        <path d="M23.059542,17.1969466 L2.34503817,17.1969466 C2.12918336,17.1969466 1.95419847,17.3719315 1.95419847,17.5877863 C1.95419847,17.803641 2.12918336,17.978626 2.34503817,17.978626 L23.059542,17.978626 C23.2753968,17.978626 23.4503817,17.803641 23.4503817,17.5877863 C23.4503817,17.3719315 23.2753968,17.1969466 23.059542,17.1969466 Z" id="Shape" fill="#2C3E50"></path>
                        <g id="Group" transform="translate(0.000000, 1.172519)" fill="#DEDEDE">
                            <circle id="Oval" cx="0.390839695" cy="0.390839695" r="1"></circle>
                            <path d="M1.95419847,0.781679389 L6.25343511,0.781679389 C6.4692899,0.781679389 6.64427481,0.606694498 6.64427481,0.390839695 C6.64427481,0.174984892 6.4692899,0 6.25343511,0 L1.95419847,0 C1.73834367,0 1.56335878,0.174984892 1.56335878,0.390839695 C1.56335878,0.606694498 1.73834367,0.781679389 1.95419847,0.781679389 Z" id="Shape"></path>
                            <path d="M7.81679389,0.781679389 L9.77099237,0.781679389 C9.98684715,0.781679389 10.1618321,0.606694498 10.1618321,0.390839695 C10.1618321,0.174984892 9.98684715,0 9.77099237,0 L7.81679389,0 C7.60093911,0 7.4259542,0.174984892 7.4259542,0.390839695 C7.4259542,0.606694498 7.60093911,0.781679389 7.81679389,0.781679389 Z" id="Shape"></path>
                            <circle id="Oval" cx="12.1160305" cy="8.20763359" r="1"></circle>
                            <path d="M10.9435115,8.20763359 C10.9435115,7.9917788 10.7685265,7.81679389 10.5526718,7.81679389 L6.25343511,7.81679389 C6.03758033,7.81679389 5.86259542,7.9917788 5.86259542,8.20763359 C5.86259542,8.42348837 6.03758033,8.59847328 6.25343511,8.59847328 L10.5526718,8.59847328 C10.7685265,8.59847328 10.9435115,8.42348837 10.9435115,8.20763359 Z" id="Shape"></path>
                            <path d="M4.69007634,7.81679389 L0.390839695,7.81679389 C0.174984892,7.81679389 0,7.9917788 0,8.20763359 C0,8.42348837 0.174984892,8.59847328 0.390839695,8.59847328 L4.69007634,8.59847328 C4.90593112,8.59847328 5.08091603,8.42348837 5.08091603,8.20763359 C5.08091603,7.9917788 4.90593112,7.81679389 4.69007634,7.81679389 Z" id="Shape"></path>
                        </g>
                        <path d="M14.4610687,10.5526718 L9.38015267,10.5526718 C9.16429789,10.5526718 8.98931298,10.7276567 8.98931298,10.9435115 C8.98931298,11.1593662 9.16429789,11.3343511 9.38015267,11.3343511 L14.4610687,11.3343511 C14.6769235,11.3343511 14.8519084,11.1593662 14.8519084,10.9435115 C14.8519084,10.7276567 14.6769235,10.5526718 14.4610687,10.5526718 Z" id="Shape" fill="#2C3E50"></path>
                        <path d="M7.81679389,10.5526718 L7.0351145,10.5526718 C6.81925972,10.5526718 6.64427481,10.7276567 6.64427481,10.9435115 C6.64427481,11.1593662 6.81925972,11.3343511 7.0351145,11.3343511 L7.81679389,11.3343511 C8.03264868,11.3343511 8.20763359,11.1593662 8.20763359,10.9435115 C8.20763359,10.7276567 8.03264868,10.5526718 7.81679389,10.5526718 Z" id="Shape" fill="#2C3E50"></path>
                        <circle id="Oval" fill="#3F5C6C" cx="19.5419847" cy="15.6335878" r="1"></circle>
                        <path d="M21.4961889,7.2969771 L21.4961889,7.4259542 C21.4961889,7.64180898 21.3211983,7.81679389 21.1053435,7.81679389 L17.8574656,7.81679389 C18.1411643,6.59959511 18.7015353,5.46414158 19.495084,4.49856489 L21.4180153,7.06247328 C21.4691666,7.12990974 21.4966424,7.21233717 21.4961889,7.2969771 Z" id="Shape" fill="#2FA8CC"></path>
                    </g>
                </g>
            </g>
        </g>
    </g>
</svg>