<?xml version="1.0" encoding="UTF-8"?>
<svg width="19px" height="24px" viewBox="0 0 19 24" version="1.1" xmlns="http://www.w3.org/2000/svg" xmlns:xlink="http://www.w3.org/1999/xlink">
    <title>kid-and-baby</title>
    <g id="Page-1" stroke="none" stroke-width="1" fill="none" fill-rule="evenodd">
        <g id="Landing" transform="translate(-34.000000, -684.000000)" fill-rule="nonzero">
            <g id="Group-7" transform="translate(34.000000, 656.000000)">
                <g id="kid-and-baby" transform="translate(0.000000, 28.000000)">
                    <path d="M11.5571815,21.0949952 L13.2029267,21.0949952 C14.7935367,21.0949952 16.0829809,22.3869529 16.0829809,23.9806634 L2.91701912,23.9806634 C2.91701912,22.3869529 4.2064633,21.0949952 5.79707325,21.0949952 L11.5571815,21.0949952 Z" id="Shape" fill="#4363E9"></path>
                    <path d="M11.5571815,19.9778293 L11.5571815,21.0949952 C11.5551481,21.7771683 11.0037186,22.3296728 10.3228726,22.3317101 L8.67712739,22.3317101 C7.99628144,22.3296728 7.44485187,21.7771683 7.44281847,21.0949952 L7.44281847,19.9778293 L11.5571815,19.9778293 Z" id="Shape" fill="#F09372"></path>
                    <path d="M0.608861445,11.0850242 C0.317264336,10.1393787 0.128282857,9.16498701 0.0451937066,8.17874396 C0.0362845348,8.06217026 0.0335377861,7.94520592 0.0369649805,7.82834138 C0.353770936,-0.573075684 9.5,0.0452818035 9.5,0.0452818035 C9.5,0.0452818035 18.6462291,-0.573075684 18.963035,7.82834138 C18.9664622,7.94520592 18.9637155,8.06217026 18.9548063,8.17874396 C18.8717171,9.16498701 18.6827356,10.1393787 18.3911386,11.0850242 L0.608861445,11.0850242 Z" id="Shape" fill="#424242"></path>
                    <path d="M16.9058535,10.789037 L17.523008,10.789037 C18.3167222,10.7928718 18.9592077,11.4366097 18.963035,12.2318712 C18.963035,13.0287265 18.3183129,13.6747053 17.523008,13.6747053 L1.47699205,13.6747053 C0.681687061,13.6747053 0.0369649805,13.0287265 0.0369649805,12.2318712 C0.0407923462,11.4366097 0.68327781,10.7928718 1.47699205,10.789037 L16.9058535,10.789037 Z" id="Shape" fill="#F09372"></path>
                    <path d="M16.9058535,8.69404187 L16.9058535,12.8494042 C16.9058535,16.9475171 13.5901399,20.269694 9.5,20.269694 C5.40986005,20.269694 2.09414651,16.9475171 2.09414651,12.8494042 L2.09414651,8.69404187 C2.08071323,7.97664878 2.39221194,7.29174362 2.94136907,6.83121829 C3.4905262,6.37069301 4.21827283,6.18408302 4.92071392,6.3236715 C4.93879548,6.32439642 4.95673776,6.32716217 4.97420064,6.33191626 C6.97789545,6.73178744 7.42224666,8.31066023 9.3436542,8.38898551 C9.41359838,8.39310789 9.58640162,8.39310789 9.6563458,8.38898551 C11.5777533,8.31066023 12.0221046,6.73178744 14.0257994,6.33191626 C14.7345056,6.17558016 15.4756393,6.35307881 16.037177,6.81363348 C16.5987146,7.27418816 16.9187965,7.96706354 16.9058535,8.69404187 Z" id="Shape" fill="#F9C795"></path>
                    <path d="M15.6715446,8.69404187 L15.6715446,12.8494042 C15.6715446,16.8192593 13.0753815,20.0594525 9.81680595,20.2614493 C5.9472475,20.4168631 3.32845542,16.7590725 3.32845542,12.8494042 L3.32845542,8.69404187 C3.32845542,7.36333655 4.13322484,6.49722383 4.92071392,6.3236715 C4.93879548,6.32439642 4.95673776,6.32716217 4.97420064,6.33191626 C6.97789545,6.73178744 7.42224666,8.31066023 9.3436542,8.38898551 C9.44780515,8.39475721 9.55219485,8.39475721 9.6563458,8.38898551 C11.5777533,8.31066023 12.0221046,6.73178744 14.0257994,6.33191626 C14.0432622,6.32716217 14.0612045,6.32439642 14.0792861,6.3236715 C14.8634837,6.49681159 15.6715446,7.35797746 15.6715446,8.69404187 Z" id="Shape" fill="#FDD7AD"></path>
                    <path d="M7.03138217,9.51851852 L4.97420064,9.51851852 C4.74697067,9.51851852 4.56276434,9.33395311 4.56276434,9.10628019 C4.56276434,8.87860727 4.74697067,8.69404187 4.97420064,8.69404187 L7.03138217,8.69404187 C7.25861215,8.69404187 7.44281847,8.87860727 7.44281847,9.10628019 C7.44281847,9.33395311 7.25861215,9.51851852 7.03138217,9.51851852 Z" id="Shape" fill="#424242"></path>
                    <path d="M14.0257994,9.51851852 L11.9686178,9.51851852 C11.7413879,9.51851852 11.5571815,9.33395311 11.5571815,9.10628019 C11.5571815,8.87860727 11.7413879,8.69404187 11.9686178,8.69404187 L14.0257994,8.69404187 C14.2530293,8.69404187 14.4372357,8.87860727 14.4372357,9.10628019 C14.4372357,9.33395311 14.2530293,9.51851852 14.0257994,9.51851852 Z" id="Shape" fill="#424242"></path>
                    <path d="M9.91143631,14.8776167 L9.08856369,14.8776167 C8.86133372,14.8776167 8.67712739,14.6930513 8.67712739,14.4653784 C8.67712739,14.2377055 8.86133372,14.0531401 9.08856369,14.0531401 L9.91143631,14.0531401 C10.1386663,14.0531401 10.3228726,14.2377055 10.3228726,14.4653784 C10.3228726,14.6930513 10.1386663,14.8776167 9.91143631,14.8776167 Z" id="Shape" fill="#F09372"></path>
                    <path d="M11.5571815,16.52657 L7.44281847,16.52657 C7.2155885,16.52657 7.03138217,16.3420046 7.03138217,16.1143317 C7.03138217,15.8866588 7.2155885,15.7020934 7.44281847,15.7020934 L11.5571815,15.7020934 C11.7844115,15.7020934 11.9686178,15.8866588 11.9686178,16.1143317 C11.9686178,16.3420046 11.7844115,16.52657 11.5571815,16.52657 Z" id="Shape" fill="#F09372"></path>
                    <path d="M9.91143631,18.1755233 L9.08856369,18.1755233 C8.86133372,18.1755233 8.67712739,17.9909579 8.67712739,17.763285 C8.67712739,17.5356121 8.86133372,17.3510467 9.08856369,17.3510467 L9.91143631,17.3510467 C10.1386663,17.3510467 10.3228726,17.5356121 10.3228726,17.763285 C10.3228726,17.9909579 10.1386663,18.1755233 9.91143631,18.1755233 Z" id="Shape" fill="#F9C795"></path>
                    <path d="M7.47079614,13.6409283 L4.94622297,13.6409283 C4.57321581,13.6438532 4.24279625,13.4003797 4.13445914,13.042744 L3.77280663,11.806029 C3.70290715,11.5539405 3.75588113,11.2835839 3.91571508,11.0766854 C4.07554904,10.8697868 4.32348352,10.7506295 4.58457046,10.7552335 L7.83244866,10.7552335 C8.0935356,10.7506295 8.34147008,10.8697868 8.50130403,11.0766854 C8.66113799,11.2835839 8.71411198,11.5539405 8.64421249,11.806029 L8.28255997,13.042744 C8.17422287,13.4003797 7.84380331,13.6438532 7.47079614,13.6409283 Z" id="Shape" fill="#CCCCCC"></path>
                    <path d="M14.053777,13.6409283 L11.5292039,13.6409283 C11.1561967,13.6438532 10.8257771,13.4003797 10.71744,13.042744 L10.3557875,11.806029 C10.285888,11.5539405 10.338862,11.2835839 10.498696,11.0766854 C10.6585299,10.8697868 10.9064644,10.7506295 11.1675513,10.7552335 L14.4154295,10.7552335 C14.6765165,10.7506295 14.924451,10.8697868 15.0842849,11.0766854 C15.2441189,11.2835839 15.2970929,11.5539405 15.2271934,11.806029 L14.8655409,13.042744 C14.7572038,13.4003797 14.4267842,13.6438532 14.053777,13.6409283 Z" id="Shape" fill="#CCCCCC"></path>
                    <path d="M15.5933717,11.1674718 C15.5545485,11.0519912 15.4976047,10.9434479 15.4246828,10.8459259 C15.1872135,10.5276942 14.8132315,10.3411034 14.4166638,10.3429809 L11.166317,10.3429809 C10.7697494,10.3411034 10.3957674,10.5276942 10.1582981,10.8459259 C10.145955,10.8624155 10.1377263,10.878905 10.1294975,10.8912721 C9.72516893,10.730508 9.27483107,10.730508 8.87050245,10.8912721 C8.86227373,10.878905 8.854045,10.8624155 8.84170191,10.8459259 C8.6042326,10.5276942 8.23025058,10.3411034 7.83368296,10.3429809 L4.58333615,10.3429809 C4.18676854,10.3411034 3.81278651,10.5276942 3.57531721,10.8459259 C3.50239527,10.9434479 3.44545147,11.0519912 3.40662832,11.1674718 L2.09414651,11.1674718 L2.09414651,11.9919485 L3.39839959,11.9919485 L3.73989173,13.1585829 C3.90015851,13.6910062 4.39037269,14.0547736 4.9454001,14.0531456 L7.47161902,14.0531456 C8.02664643,14.0547736 8.51686061,13.6910062 8.67712739,13.1585829 L9.03919134,11.921868 C9.05751976,11.8487899 9.06990341,11.7743431 9.07622061,11.6992593 C9.33933466,11.5508835 9.66066534,11.5508835 9.92377939,11.6992593 C9.93009659,11.7743431 9.94248024,11.8487899 9.96080866,11.921868 L10.3228726,13.1585829 C10.4831394,13.6910062 10.9733536,14.0547736 11.528381,14.0531456 L14.0545999,14.0531456 C14.6096273,14.0547736 15.0998415,13.6910062 15.2601083,13.1585829 L15.6016004,11.9919485 L16.9058535,11.9919485 L16.9058535,11.1674718 L15.5933717,11.1674718 Z M8.24923363,11.6910145 L7.88716968,12.9277295 C7.82968804,13.108625 7.66108107,13.2307269 7.47161902,13.2286634 L4.9454001,13.2286634 C4.75593804,13.2307269 4.58733108,13.108625 4.52984943,12.9277295 L4.16778548,11.6910145 C4.13175078,11.5704268 4.15628794,11.4398193 4.23361529,11.3406119 C4.31571531,11.2300256 4.44579049,11.165628 4.58333615,11.1674718 L7.83368296,11.1674718 C7.97122863,11.165628 8.10130381,11.2300256 8.18340382,11.3406119 C8.26073118,11.4398193 8.28526833,11.5704268 8.24923363,11.6910145 L8.24923363,11.6910145 Z M14.8322145,11.6910145 L14.4701506,12.9277295 C14.4126689,13.108625 14.244062,13.2307269 14.0545999,13.2286634 L11.528381,13.2286634 C11.3389189,13.2307269 11.170312,13.108625 11.1128303,12.9277295 L10.7507664,11.6910145 C10.7147317,11.5704268 10.7392688,11.4398193 10.8165962,11.3406119 C10.8986962,11.2300256 11.0287714,11.165628 11.166317,11.1674718 L14.4166638,11.1674718 C14.5542095,11.165628 14.6842847,11.2300256 14.7663847,11.3406119 C14.8437121,11.4398193 14.8682492,11.5704268 14.8322145,11.6910145 L14.8322145,11.6910145 Z" id="Shape" fill="#3D324C"></path>
                </g>
            </g>
        </g>
    </g>
</svg>