<?xml version="1.0" encoding="UTF-8"?>
<svg width="23px" height="24px" viewBox="0 0 23 24" version="1.1" xmlns="http://www.w3.org/2000/svg" xmlns:xlink="http://www.w3.org/1999/xlink">
    <title>exit</title>
    <g id="Website" stroke="none" stroke-width="1" fill="none" fill-rule="evenodd">
        <g id="Landing" transform="translate(-97.000000, -408.000000)" fill-rule="nonzero">
            <g id="Group-5" transform="translate(97.000000, 408.000000)">
                <g id="exit" transform="translate(-0.000000, 0.000000)">
                    <path d="M19.1701017,20.9783729 L22.1625085,20.9783729 C22.4926102,20.9774237 22.76,20.7100339 22.7610169,20.3798644 L22.7610169,0.628881356 C22.7600678,0.298779661 22.492678,0.0313898305 22.1625085,0.0303728814 L8.9959322,0.0303728814" id="Path" fill="#4363E9"></path>
                    <path d="M8.39735223,13.9031864 L8.39735223,20.6611525 C8.39505085,20.9324746 8.57362712,21.1722034 8.83430508,21.247661 L18.4099661,23.9467797 C18.592,23.9975593 18.787322,23.9594576 18.9369492,23.844 C19.0865763,23.7285424 19.1729492,23.5492881 19.1701054,23.3602712 L19.1701054,3.3399322 C19.1724068,3.06861017 18.9938305,2.82888136 18.7331525,2.75342373 L9.15749153,0.0543050847 C8.97545763,0.00352542373 8.78013559,0.0416271186 8.63050847,0.157084746 C8.48088136,0.272542373 8.39450847,0.45179661 8.39735223,0.640813559 L8.39735223,10.0968136" id="Path" fill="#89A0FF"></path>
                    <path d="M10.5340339,12.4847458 L6.91322034,14.8906441 C6.73423729,15.0115254 6.50311864,15.0235932 6.31247458,14.9220339 C6.12183051,14.8204746 6.00298305,14.6218305 6.00352542,14.4058305 L6.00352542,13.1968814 L0.617152542,13.1968814 C0.286644068,13.1968814 0.0186440678,12.9289492 0.0186440678,12.5983729 L0.0186440678,11.4014237 C0.0186440678,11.0709153 0.286576271,10.8029153 0.617152542,10.8029153 L6.00345763,10.8029153 L6.00345763,9.5939661 C6.00291525,9.3779661 6.12176271,9.17938983 6.31240678,9.07783051 C6.50305085,8.97627119 6.73416949,8.98833898 6.91315254,9.10922034 L10.5339661,11.5151186 C10.6941017,11.6245424 10.7898305,11.8059661 10.7898305,11.9998644 C10.7898305,12.1938983 10.6941017,12.375322 10.5340339,12.4847458 Z" id="Path" fill="#1A2C68"></path>
                </g>
            </g>
        </g>
    </g>
</svg>